GOV50 Final Project
…
MCs’ first dimension DW-NOMINATE scores vs. Republican presidential vote share in their district

library(haven)
library(tidyr)
library(tidyverse)
congress <- read_dta("congress.dta")

congress <- congress |>
  mutate(
    republican = if_else(party_code == 200,
                         "1","0"))
congress

# A tibble: 445 × 13
   district_…¹ state…² party…³ bioname nomin…⁴ nomin…⁵ Biden20 Trump20
         <dbl> <chr>     <dbl> <chr>     <dbl>   <dbl>   <dbl>   <dbl>
 1           1 AK          200 YOUNG,…   0.283   0.022    43      53.1
 2           1 AL          200 CARL, …   0.524   0.521    35.3    63.7
 3           2 AL          200 MOORE,…   0.633  -0.076    35.1    63.9
 4           3 AL          200 ROGERS…   0.36    0.463    33.7    65.3
 5           4 AL          200 ADERHO…   0.38    0.576    17.8    81.2
 6           5 AL          200 BROOKS…   0.646  -0.404    35.7    62.7
 7           6 AL          200 PALMER…   0.682   0.091    31.8    67  
 8           7 AL          100 SEWELL…  -0.393   0.402    70.8    28.5
 9           1 AR          200 CRAWFO…   0.432   0.487    27.9    69.1
10           2 AR          200 HILL, …   0.444   0.25     44.3    53.1
# … with 435 more rows, 5 more variables: Clinton16 <dbl>,
#   Trump16 <dbl>, Obama12 <dbl>, Romney12 <dbl>, republican <chr>,
#   and abbreviated variable names ¹​district_code, ²​state_abbrev,
#   ³​party_code, ⁴​nominate_dim1, ⁵​nominate_dim2

congress <- congress|>
  mutate(
    Rpres_1220 = ((Romney12)/(Romney12 + Obama12) + (Trump16)/(Trump16 + Clinton16) + (Trump20)/(Biden20 + Trump20))/3)

congress

# A tibble: 445 × 14
   district_…¹ state…² party…³ bioname nomin…⁴ nomin…⁵ Biden20 Trump20
         <dbl> <chr>     <dbl> <chr>     <dbl>   <dbl>   <dbl>   <dbl>
 1           1 AK          200 YOUNG,…   0.283   0.022    43      53.1
 2           1 AL          200 CARL, …   0.524   0.521    35.3    63.7
 3           2 AL          200 MOORE,…   0.633  -0.076    35.1    63.9
 4           3 AL          200 ROGERS…   0.36    0.463    33.7    65.3
 5           4 AL          200 ADERHO…   0.38    0.576    17.8    81.2
 6           5 AL          200 BROOKS…   0.646  -0.404    35.7    62.7
 7           6 AL          200 PALMER…   0.682   0.091    31.8    67  
 8           7 AL          100 SEWELL…  -0.393   0.402    70.8    28.5
 9           1 AR          200 CRAWFO…   0.432   0.487    27.9    69.1
10           2 AR          200 HILL, …   0.444   0.25     44.3    53.1
# … with 435 more rows, 6 more variables: Clinton16 <dbl>,
#   Trump16 <dbl>, Obama12 <dbl>, Romney12 <dbl>, republican <chr>,
#   Rpres_1220 <dbl>, and abbreviated variable names ¹​district_code,
#   ²​state_abbrev, ³​party_code, ⁴​nominate_dim1, ⁵​nominate_dim2
…
